{
 "compilerOptions": {
  "baseUrl": ".",
  "paths": {
   "*": [
    "../../../../tmp/hugo_cache_vscode/modules/filecache/modules/pkg/mod/github.com/!hugo!blox/hugo-blox-builder/modules/blox-bootstrap/v5@v5.9.7/assets/*"
   ]
  }
 }
}